%YAML 1.1
%TAG !u! tag:unity3d.com,2011:
--- !u!21 &2100000
Material:
  serializedVersion: 8
  m_ObjectHideFlags: 0
  m_CorrespondingSourceObject: {fileID: 0}
  m_PrefabInstance: {fileID: 0}
  m_PrefabAsset: {fileID: 0}
  m_Name: Day1
  m_Shader: {fileID: 4800000, guid: eb3c6fb598ded4c71b8968e1c40a3b4d, type: 3}
  m_ValidKeywords: []
  m_InvalidKeywords: []
  m_LightmapFlags: 4
  m_EnableInstancingVariants: 0
  m_DoubleSidedGI: 0
  m_CustomRenderQueue: -1
  stringTagMap: {}
  disabledShaderPasses: []
  m_SavedProperties:
    serializedVersion: 3
    m_TexEnvs: []
    m_Ints: []
    m_Floats:
    - _HorizonLineContribution: 0.25
    - _HorizonLineExponent: 4
    - _SkyGradientExponent: 2.5
    - _SunDiscExponent: 125000
    - _SunDiscMultiplier: 25
    - _SunHaloContribution: 0.75
    - _SunHaloExponent: 125
    m_Colors:
    - _HorizonLineColor: {r: 0.9044118, g: 0.8872592, b: 0.7913603, a: 1}
    - _SkyGradientBottom: {r: 0.76470596, g: 0.8156863, b: 0.8509805, a: 1}
    - _SkyGradientTop: {r: 0.17254895, g: 0.5686274, b: 0.6941177, a: 1}
    - _SunDiscColor: {r: 1, g: 1, b: 1, a: 1}
    - _SunHaloColor: {r: 0.8970588, g: 0.7760561, b: 0.666198, a: 1}
  m_BuildTextureStacks: []
